…
## 8. 3D 시각화

scatterplot3d와 plane3d를 사용하여 3D 그래프로 데이터를 시각화합니다.
<img src="https://github.com/auspicious0/insurance/assets/108572025/e10cea56-aac0-42e8-abd2-6a59fb60c695" width="500" height="500"/>
<img src="https://github.com/auspicious0/insurance/assets/108572025/4dfbda2e-c3d2-44e5-9e4c-65c5f3394126" width="500" height="500"/>

## 9. 예측

테스트 데이터를 사용하여 병원 비용을 예측하고 예측 결과를 확인합니다.

```
"test_set을 이용한 predict"
# A tibble: 357 × 7
     age   bmi children charges   sex smoker charges_predict
   <int> <dbl>    <int>   <dbl> <dbl>  <dbl>           <dbl>
 1    46  33.4        1   8241.     1      0           9769.
 2    60  25.8        0  28923.     1      0          13101.
 3    52  30.8        1  10797.     1      0          11197.
 4    23  23.8        0   2395.     0      0           4295.
 5    60  36.0        0  13229.     1      0          13101.
 6    18  34.1        0   1137.     0      0           3106.
 7    63  23.1        0  14452.     1      0          13815.
 8    55  32.8        2  12269.     1      0          11911.
 9    23  17.4        1   2775.     0      0           4295.
10    18  26.3        0   2198.     1      0           3106.
# ℹ 347 more rows
```
…
